CA_Exercise-main/CA_Exercises/SIM/vcd_dump.vcd
$date
    Apr 27, 2023  09:28:20
$end
$version
    TOOL:	ncsim(64)	15.20-s058
$end
$timescale
    10 ps
$end

$scope module cpu_tb $end
$var reg       1 !    clk  $end
$var reg       1 "    arst_n  $end
$var reg      64 #    addr_ext [63:0] $end
$var reg       1 $    wen_ext  $end
$var reg       1 %    ren_ext  $end
$var reg      32 &    wdata_ext [31:0] $end
$var reg      64 '    addr_ext_2 [63:0] $end
$var reg       1 (    wen_ext_2  $end
$var reg       1 )    ren_ext_2  $end
$var reg      64 *    wdata_ext_2 [63:0] $end
$var wire     32 +    rdata_ext [31:0] $end
$var wire     64 ,    rdata_ext_2 [63:0] $end
$var reg       1 -    enable  $end
$var integer  32 .    half_clock_period_ns  $end
$var integer  32 /    imem_cnt  $end
$var integer  32 0    dmem_cnt  $end
$var parameter 32 1    IMEM_UNIT [31:0] $end
$var parameter 32 2    DMEM_UNIT [31:0] $end
$var integer  32 3    counter  $end
$var parameter 32 4    CASE_N_MAX [31:0] $end

$scope module dut $end
$var wire      1 5    clk  $end
$var wire      1 6    arst_n  $end
$var wire      1 7    enable  $end
$var wire     64 8    addr_ext [63:0] $end
$var wire      1 9    wen_ext  $end
$var wire      1 :    ren_ext  $end
$var wire     32 ;    wdata_ext [31:0] $end
$var wire     64 <    addr_ext_2 [63:0] $end
$var wire      1 =    wen_ext_2  $end
$var wire      1 >    ren_ext_2  $end
$var wire     64 ?    wdata_ext_2 [63:0] $end
$var wire     32 +    rdata_ext [31:0] $end
$var wire     64 ,    rdata_ext_2 [63:0] $end
$var wire      1 @    zero_flag  $end
$var wire     64 A    branch_pc [63:0] $end
$var wire     64 B    updated_pc [63:0] $end
$var wire     64 C    current_pc [63:0] $end
$var wire     64 D    jump_pc [63:0] $end
$var wire     32 E    instruction [31:0] $end
$var wire     32 F    instruction_IF_ID [31:0] $end
$var wire     32 G    instruction_ID_EX [31:0] $end
$var wire     32 H    instruction_EX_MEM [31:0] $end
$var wire     32 I    instruction_MEM_WB [31:0] $end
$var wire      2 J    alu_op [1:0] $end
$var wire      4 K    alu_control [3:0] $end
$var wire      1 L    reg_dst  $end
$var wire      1 M    branch  $end
$var wire      1 N    mem_read  $end
$var wire      1 O    mem_2_reg  $end
$var wire      1 P    mem_write  $end
$var wire      1 Q    alu_src  $end
$var wire      1 R    reg_write  $end
$var wire      1 S    jump  $end
$var wire      5 T    regfile_waddr [4:0] $end
$var wire     64 U    regfile_wdata [63:0] $end
$var wire     64 V    mem_data [63:0] $end
$var wire     64 W    alu_out [63:0] $end
$var wire     64 X    regfile_rdata_1 [63:0] $end
$var wire     64 Y    regfile_rdata_2 [63:0] $end
$var wire     64 Z    alu_operand_2 [63:0] $end
$var wire     64 [    immediate_extended [63:0] $end

$scope module immediate_extend_u $end
$var wire     32 F    instruction [31:0] $end
$var reg      64 \    immediate_extended [63:0] $end
$var wire     25 ]    instr [31:7] $end
$var wire      7 ^    opcode [6:0] $end
$var reg       3 _    instr_type [2:0] $end
$var parameter 32 `    ALU_R [31:0] $end
$var parameter 32 a    ALU_I [31:0] $end
$var parameter 32 b    BRANCH_EQ [31:0] $end
$var parameter 32 c    JUMP [31:0] $end
$var parameter 32 d    LOAD_WORD [31:0] $end
$var parameter 32 e    STORE_WORD [31:0] $end
$upscope $end


$scope module program_counter $end
$var parameter 32 f    DATA_W [31:0] $end
$var wire      1 5    clk  $end
$var wire      1 6    arst_n  $end
$var wire      1 7    enable  $end
$var wire     64 A    branch_pc [63:0] $end
$var wire     64 D    jump_pc [63:0] $end
$var wire      1 @    zero_flag  $end
$var wire      1 M    branch  $end
$var wire      1 S    jump  $end
$var reg      64 g    updated_pc [63:0] $end
$var reg      64 h    current_pc [63:0] $end
$var parameter 64 i    PC_INCREASE [63:0] $end
$var wire     64 j    pc_r [63:0] $end
$var wire     64 k    next_pc [63:0] $end
$var wire     64 l    next_pc_i [63:0] $end
$var reg       1 m    pc_src  $end

$scope module mux_branch $end
$var parameter 32 n    DATA_W [31:0] $end
$var wire     64 A    input_a [63:0] $end
$var wire     64 o    input_b [63:0] $end
$var wire      1 p    select_a  $end
$var reg      64 q    mux_out [63:0] $end
$upscope $end


$scope module mux_jump $end
$var parameter 32 r    DATA_W [31:0] $end
$var wire     64 D    input_a [63:0] $end
$var wire     64 l    input_b [63:0] $end
$var wire      1 S    select_a  $end
$var reg      64 s    mux_out [63:0] $end
$upscope $end


$scope module pc_register $end
$var parameter 32 t    DATA_W [31:0] $end
$var parameter 32 u    PRESET_VAL [31:0] $end
$var wire      1 5    clk  $end
$var wire      1 6    arst_n  $end
$var wire      1 7    en  $end
$var wire     64 k    din [63:0] $end
$var wire     64 v    dout [63:0] $end
$var reg      64 w    r [63:0] $end
$var reg      64 x    nxt [63:0] $end
$upscope $end

$upscope $end


$scope module instruction_memory $end
$var parameter 32 y    ADDR_W [31:0] $end
$var wire      1 5    clk  $end
$var wire     64 C    addr [63:0] $end
$var wire     64 8    addr_ext [63:0] $end
$var wire      1 z    wen  $end
$var wire      1 9    wen_ext  $end
$var wire      1 {    ren  $end
$var wire      1 :    ren_ext  $end
$var wire     32 |    wdata [31:0] $end
$var wire     32 ;    wdata_ext [31:0] $end
$var reg      32 }    rdata [31:0] $end
$var reg      32 ~    rdata_ext [31:0] $end
$var parameter 32 !!   SEL_W [31:0] $end
$var parameter 32 "!   MACRO_DEPTH [31:0] $end
$var parameter 32 #!   N_MEMS [31:0] $end
$var reg       7 $!   addr_i [6:0] $end
$var reg       7 %!   addr_ext_i [6:0] $end
$var reg       1 &!   mem_sel [0:0] $end
$var reg       1 '!   mem_sel_ext [0:0] $end
$var wire     32 (!   data_i [0] $end
$var wire     32 )!   data_ext_i [0] $end
$var reg       1 *!   web0  $end
$var reg       1 +!   web1  $end
$var reg       1 ,!   csb0  $end
$var reg       1 -!   csb1  $end

$scope begin process_for_mem[0] $end
$var parameter 32 .!   index_depth [31:0] $end

$scope module dram_inst $end
$var parameter 32 /!   DATA_WIDTH  $end
$var parameter 32 0!   ADDR_WIDTH  $end
$var parameter 32 1!   RAM_DEPTH  $end
$var parameter 32 2!   DELAY  $end
$var parameter 32 3!   VERBOSE  $end
$var parameter 32 4!   T_HOLD  $end
$var wire      1 5!   clk0  $end
$var wire      1 6!   csb0  $end
$var wire      1 7!   web0  $end
$var wire      7 8!   addr0 [6:0] $end
$var wire     32 |    din0 [31:0] $end
$var reg      32 9!   dout0 [31:0] $end
$var wire      1 :!   clk1  $end
$var wire      1 ;!   csb1  $end
$var wire      1 <!   web1  $end
$var wire      7 =!   addr1 [6:0] $end
$var wire     32 ;    din1 [31:0] $end
$var reg      32 >!   dout1 [31:0] $end
$upscope $end

$upscope $end

$upscope $end


$scope module signal_pipe_IF_ID $end
$var parameter 32 ?!   DATA_W [31:0] $end
$var parameter 32 @!   PRESET_VAL [31:0] $end
$var wire      1 5    clk  $end
$var wire      1 6    arst_n  $end
$var wire      1 7    en  $end
$var wire     32 E    din [31:0] $end
$var wire     32 F    dout [31:0] $end
$var reg      32 A!   r [31:0] $end
$var reg      32 B!   nxt [31:0] $end
$upscope $end


$scope module signal_pipe_ID_EX $end
$var parameter 32 C!   DATA_W [31:0] $end
$var parameter 32 D!   PRESET_VAL [31:0] $end
$var wire      1 5    clk  $end
$var wire      1 6    arst_n  $end
$var wire      1 7    en  $end
$var wire     32 F    din [31:0] $end
$var wire     32 G    dout [31:0] $end
$var reg      32 E!   r [31:0] $end
$var reg      32 F!   nxt [31:0] $end
$upscope $end


$scope module signal_pipe_EX_MEM $end
$var parameter 32 G!   DATA_W [31:0] $end
$var parameter 32 H!   PRESET_VAL [31:0] $end
$var wire      1 5    clk  $end
$var wire      1 6    arst_n  $end
$var wire      1 7    en  $end
$var wire     32 G    din [31:0] $end
$var wire     32 H    dout [31:0] $end
$var reg      32 I!   r [31:0] $end
$var reg      32 J!   nxt [31:0] $end
$upscope $end


$scope module signal_pipe_MEM_WB $end
$var parameter 32 K!   DATA_W [31:0] $end
$var parameter 32 L!   PRESET_VAL [31:0] $end
$var wire      1 5    clk  $end
$var wire      1 6    arst_n  $end
$var wire      1 7    en  $end
$var wire     32 H    din [31:0] $end
$var wire     32 I    dout [31:0] $end
$var reg      32 M!   r [31:0] $end
$var reg      32 N!   nxt [31:0] $end
$upscope $end


$scope module data_memory $end
$var parameter 32 O!   ADDR_W [31:0] $end
$var wire      1 5    clk  $end
$var wire     64 W    addr [63:0] $end
$var wire     64 <    addr_ext [63:0] $end
$var wire      1 P    wen  $end
$var wire      1 =    wen_ext  $end
$var wire      1 N    ren  $end
$var wire      1 >    ren_ext  $end
$var wire     64 Y    wdata [63:0] $end
$var wire     64 ?    wdata_ext [63:0] $end
$var reg      64 P!   rdata [63:0] $end
$var reg      64 Q!   rdata_ext [63:0] $end
$var parameter 32 R!   SEL_W [31:0] $end
$var parameter 32 S!   MACRO_DEPTH [31:0] $end
$var parameter 32 T!   N_MEMS [31:0] $end
$var reg       7 U!   addr_i [6:0] $end
$var reg       7 V!   addr_ext_i [6:0] $end
$var reg       1 W!   mem_sel [0:0] $end
$var reg       1 X!   mem_sel_ext [0:0] $end
$var wire     64 Y!   data_i [0] $end
$var wire     64 Z!   data_ext_i [0] $end
$var reg       1 [!   web0  $end
$var reg       1 \!   web1  $end
$var reg       1 ]!   csb0  $end
$var reg       1 ^!   csb1  $end

$scope begin process_for_mem[0] $end
$var parameter 32 _!   index_depth [31:0] $end

$scope module spad_inst $end
$var parameter 32 `!   DATA_WIDTH  $end
$var parameter 32 a!   ADDR_WIDTH  $end
$var parameter 32 b!   RAM_DEPTH  $end
$var parameter 32 c!   DELAY  $end
$var parameter 32 d!   VERBOSE  $end
$var parameter 32 e!   T_HOLD  $end
$var wire      1 f!   clk0  $end
$var wire      1 g!   csb0  $end
$var wire      1 h!   web0  $end
$var wire      7 i!   addr0 [6:0] $end
$var wire     64 Y    din0 [63:0] $end
$var reg      64 j!   dout0 [63:0] $end
$var wire      1 k!   clk1  $end
$var wire      1 l!   csb1  $end
$var wire      1 m!   web1  $end
$var wire      7 n!   addr1 [6:0] $end
$var wire     64 ?    din1 [63:0] $end
$var reg      64 o!   dout1 [63:0] $end
$upscope $end

$upscope $end

$upscope $end


$scope module control_unit $end
$var wire      7 p!   opcode [6:0] $end
$var reg       2 q!   alu_op [1:0] $end
$var reg       1 r!   reg_dst  $end
$var reg       1 s!   branch  $end
$var reg       1 t!   mem_read  $end
$var reg       1 u!   mem_2_reg  $end
$var reg       1 v!   mem_write  $end
$var reg       1 w!   alu_src  $end
$var reg       1 x!   reg_write  $end
$var reg       1 y!   jump  $end
$var parameter 32 z!   ALU_R [31:0] $end
$var parameter 32 {!   ALU_I [31:0] $end
$var parameter 32 |!   BRANCH_EQ [31:0] $end
$var parameter 32 }!   JUMP [31:0] $end
$var parameter 32 ~!   LOAD [31:0] $end
$var parameter 32 !"   STORE [31:0] $end
$var parameter  2 ""   ADD_OPCODE [1:0] $end
$var parameter  2 #"   SUB_OPCODE [1:0] $end
$var parameter  2 $"   R_TYPE_OPCODE [1:0] $end
$upscope $end


$scope module register_file $end
$var parameter 32 %"   DATA_W [31:0] $end
$var wire      1 5    clk  $end
$var wire      1 6    arst_n  $end
$var wire      1 R    reg_write  $end
$var wire      5 &"   raddr_1 [4:0] $end
$var wire      5 '"   raddr_2 [4:0] $end
$var wire      5 ("   waddr [4:0] $end
$var wire     64 U    wdata [63:0] $end
$var reg      64 )"   rdata_1 [63:0] $end
$var reg      64 *"   rdata_2 [63:0] $end
$var parameter 32 +"   N_REG [31:0] $end
$var integer  32 ,"   idx  $end
$upscope $end


$scope module alu_ctrl $end
$var wire      7 -"   func7_5 [6:0] $end
$var wire      3 ."   func3 [2:0] $end
$var wire      2 J    alu_op [1:0] $end
$var reg       4 /"   alu_control [3:0] $end
$var parameter  2 0"   ADD_OPCODE [1:0] $end
$var parameter  2 1"   SUB_OPCODE [1:0] $end
$var parameter  2 2"   R_TYPE_OPCODE [1:0] $end
$var parameter  4 3"   AND_OP [3:0] $end
$var parameter  4 4"   OR_OP [3:0] $end
$var parameter  4 5"   ADD_OP [3:0] $end
$var parameter  4 6"   SLL_OP [3:0] $end
$var parameter  4 7"   SRL_OP [3:0] $end
$var parameter  4 8"   SUB_OP [3:0] $end
$var parameter  4 9"   SLT_OP [3:0] $end
$var parameter  4 :"   MULT_OP [3:0] $end
$var wire     10 ;"   function_field [9:0] $end
$var parameter 10 <"   FUNC_ADD [9:0] $end
$var parameter 10 ="   FUNC_SUB [9:0] $end
$var parameter 10 >"   FUNC_AND [9:0] $end
$var parameter 10 ?"   FUNC_OR [9:0] $end
$var parameter 10 @"   FUNC_SLT [9:0] $end
$var parameter 10 A"   FUNC_SLL [9:0] $end
$var parameter 10 B"   FUNC_SRL [9:0] $end
$var parameter 10 C"   FUNC_MULT [9:0] $end
$var reg       4 D"   rtype_op [3:0] $end
$upscope $end


$scope module alu_operand_mux $end
$var parameter 32 E"   DATA_W [31:0] $end
$var wire     64 [    input_a [63:0] $end
$var wire     64 Y    input_b [63:0] $end
$var wire      1 Q    select_a  $end
$var reg      64 F"   mux_out [63:0] $end
$upscope $end


$scope module alu $end
$var parameter 32 G"   DATA_W [31:0] $end
$var wire     64 X    alu_in_0 [63:0] $end
$var wire     64 Z    alu_in_1 [63:0] $end
$var wire      4 K    alu_ctrl [3:0] $end
$var reg      64 H"   alu_out [63:0] $end
$var reg       1 I"   zero_flag  $end
$var reg       1 J"   overflow  $end
$var parameter  4 K"   AND_OP [3:0] $end
$var parameter  4 L"   OR_OP [3:0] $end
$var parameter  4 M"   ADD_OP [3:0] $end
$var parameter  4 N"   SLL_OP [3:0] $end
$var parameter  4 O"   SRL_OP [3:0] $end
$var parameter  4 P"   SUB_OP [3:0] $end
$var parameter  4 Q"   SLT_OP [3:0] $end
$var parameter  4 R"   MULT_OP [3:0] $end
$var reg      64 S"   sub_out [63:0] $end
$var reg      64 T"   add_out [63:0] $end
$var reg      64 U"   and_out [63:0] $end
$var reg      64 V"   or_out [63:0] $end
$var reg      64 W"   nor_out [63:0] $end
$var reg      64 X"   slt_out [63:0] $end
$var reg      64 Y"   sll_out [63:0] $end
$var reg      64 Z"   srl_out [63:0] $end
$var reg      64 ["   mult_out [63:0] $end
$var reg       1 \"   overflow_add  $end
$var reg       1 ]"   overflow_sub  $end
$var reg       1 ^"   msb_equal_flag  $end
$upscope $end


$scope module regfile_data_mux $end
$var parameter 32 _"   DATA_W [31:0] $end
$var wire     64 V    input_a [63:0] $end
$var wire     64 W    input_b [63:0] $end
$var wire      1 O    select_a  $end
$var reg      64 `"   mux_out [63:0] $end
$upscope $end


$scope module branch_unit $end
$var parameter 32 a"   DATA_W [31:0] $end
$var wire     64 B    updated_pc [63:0] $end
$var wire     64 [    immediate_extended [63:0] $end
$var reg      64 b"   branch_pc [63:0] $end
$var reg      64 c"   jump_pc [63:0] $end
$var parameter 64 d"   PC_INCREASE [63:0] $end
$upscope $end

$upscope $end


$scope task debug_regfile $end
$var integer  32 e"   i  $end
$upscope $end


$scope task test_basic $end
$var integer  32 f"   i  $end
$var integer  32 g"   j  $end
$upscope $end


$scope task test_mult_4 $end
$var integer  32 h"   i  $end
$var integer  32 i"   j  $end
$var reg       1 j"   error_flag  $end
$upscope $end


$scope task cnt_and_wait $end
$var reg      32 k"   stop_counter [31:0] $end
$var integer  32 l"   cnt_cycles  $end
$upscope $end


$scope task wait_for_STOP_instruction $end
$var integer  32 m"   counter_result  $end
$upscope $end

$upscope $end


$scope module reg_arstn $end
$var parameter 32 n"   DATA_W [31:0] $end
$var parameter 32 o"   PRESET_VAL [31:0] $end
$var wire      1 p"   clk  $end
$var wire      1 q"   arst_n  $end
$var wire     20 r"   din [19:0] $end
$var wire     20 s"   dout [19:0] $end
$var reg      20 t"   r [19:0] $end
$var reg      20 u"   nxt [19:0] $end
$upscope $end

$enddefinitions $end
$dumpvars
b0 o"
b10100 n"
b100 d"
b1000000 a"
b1000000 _"
b1000 R"
b111 Q"
b110 P"
b100 O"
b11 N"
b10 M"
b1 L"
b0 K"
b1000000 G"
b1000000 E"
b1000 C"
b101 B"
b1 A"
b10 @"
b110 ?"
b111 >"
b100000000 ="
b0 <"
b1000 :"
b111 9"
b110 8"
b100 7"
b11 6"
b10 5"
b1 4"
b0 3"
b10 2"
b1 1"
b0 0"
b100000 +"
b1000000 %"
b10 $"
b1 #"
b0 ""
b100011 !"
b11 ~!
b1101111 }!
b1100011 |!
b10011 {!
b110011 z!
b1 e!
b1 d!
b0 c!
b10000000 b!
b111 a!
b1000000 `!
b0 _!
b1 T!
b10000000 S!
b0 R!
b1010 O!
b0 L!
b100000 K!
b0 H!
b100000 G!
b0 D!
b100000 C!
b0 @!
b100000 ?!
b1 4!
b1 3!
b0 2!
b10000000 1!
b111 0!
b100000 /!
b0 .!
b1 #!
b10000000 "!
b0 !!
b1001 y
b0 u
b1000000 t
b1000000 r
b1000000 n
b100 i
b1000000 f
b100011 e
b11 d
b1101111 c
b1100011 b
b10011 a
b110011 `
b10000000 4
b10000000 2
b10000000 1
0!
0"
b0 #
0$
0%
b0 &
b0 '
0(
0)
b0 *
bx +
bx ,
0-
b110010 .
bx /
bx 0
bx 3
05
06
07
b0 8
09
0:
b0 ;
b0 <
0=
0>
b0 ?
1@
bx A
b100 B
b0 C
bx D
bx E
b0 F
b0 G
b0 H
b0 I
b10 J
b10 K
xL
0M
0N
0O
0P
0Q
0R
0S
bz T
b0 U
bx V
b0 W
b0 X
b0 Y
b0 Z
bx [
bx \
b0 ]
b0 ^
bx _
b100 g
b0 h
bz j
b100 k
b100 l
0m
b100 o
0p
b100 q
b100 s
b0 v
b0 w
b0 x
0z
1{
b0 |
bx }
bx ~
b0 $!
b0 %!
0&!
0'!
bx (!
bx )!
1*!
1+!
0,!
1-!
15!
06!
17!
b0 8!
bx 9!
1:!
1;!
1<!
b0 =!
bx >!
b0 A!
b0 B!
b0 E!
b0 F!
b0 I!
b0 J!
b0 M!
b0 N!
bx P!
bx Q!
b0 U!
b0 V!
0W!
0X!
bx Y!
bx Z!
1[!
1\!
1]!
1^!
1f!
1g!
1h!
b0 i!
bx j!
1k!
1l!
1m!
b0 n!
bx o!
b0 p!
b10 q!
xr!
0s!
0t!
0u!
0v!
0w!
0x!
0y!
b0 &"
b0 '"
b0 ("
b0 )"
b0 *"
b100000 ,"
b0 -"
b0 ."
b10 /"
b0 ;"
b10 D"
b0 F"
b0 H"
1I"
0J"
b0 S"
b0 T"
b0 U"
b0 V"
bx W"
b0 X"
b0 Y"
b0 Z"
b0 ["
0\"
0]"
1^"
b0 `"
bx b"
bx c"
bx e"
bx f"
bx g"
bx h"
bx i"
xj"
b1010 k"
b0 l"
bx m"
zp"
zq"
bz r"
bx s"
bx t"
bx u"
$end
#5000
1!
15
b0 ,"
b1 ,"
b10 ,"
b11 ,"
b100 ,"
b101 ,"
b110 ,"
b111 ,"
b1000 ,"
b1001 ,"
b1010 ,"
b1011 ,"
b1100 ,"
b1101 ,"
b1110 ,"
b1111 ,"
b10000 ,"
b10001 ,"
b10010 ,"
b10011 ,"
b10100 ,"
b10101 ,"
b10110 ,"
b10111 ,"
b11000 ,"
b11001 ,"
b11010 ,"
b11011 ,"
b11100 ,"
b11101 ,"
b11110 ,"
b11111 ,"
b100000 ,"
05!
0:!
0f!
0k!
#10000
0!
b1 l"
05
15!
1:!
1f!
1k!
#15000
1!
15
b0 ,"
b1 ,"
b10 ,"
b11 ,"
b100 ,"
b101 ,"
b110 ,"
b111 ,"
b1000 ,"
b1001 ,"
b1010 ,"
b1011 ,"
b1100 ,"
b1101 ,"
b1110 ,"
b1111 ,"
b10000 ,"
b10001 ,"
b10010 ,"
b10011 ,"
b10100 ,"
b10101 ,"
b10110 ,"
b10111 ,"
b11000 ,"
b11001 ,"
b11010 ,"
b11011 ,"
b11100 ,"
b11101 ,"
b11110 ,"
b11111 ,"
b100000 ,"
05!
0:!
0f!
0k!
#20000
0!
b10 l"
05
15!
1:!
1f!
1k!
#25000
1!
15
b0 ,"
b1 ,"
b10 ,"
b11 ,"
b100 ,"
b101 ,"
b110 ,"
b111 ,"
b1000 ,"
b1001 ,"
b1010 ,"
b1011 ,"
b1100 ,"
b1101 ,"
b1110 ,"
b1111 ,"
b10000 ,"
b10001 ,"
b10010 ,"
b10011 ,"
b10100 ,"
b10101 ,"
b10110 ,"
b10111 ,"
b11000 ,"
b11001 ,"
b11010 ,"
b11011 ,"
b11100 ,"
b11101 ,"
b11110 ,"
b11111 ,"
b100000 ,"
05!
0:!
0f!
0k!
#30000
0!
b11 l"
05
15!
1:!
1f!
1k!
#35000
1!
15
b0 ,"
b1 ,"
b10 ,"
b11 ,"
b100 ,"
b101 ,"
b110 ,"
b111 ,"
b1000 ,"
b1001 ,"
b1010 ,"
b1011 ,"
b1100 ,"
b1101 ,"
b1110 ,"
b1111 ,"
b10000 ,"
b10001 ,"
b10010 ,"
b10011 ,"
b10100 ,"
b10101 ,"
b10110 ,"
b10111 ,"
b11000 ,"
b11001 ,"
b11010 ,"
b11011 ,"
b11100 ,"
b11101 ,"
b11110 ,"
b11111 ,"
b100000 ,"
05!
0:!
0f!
0k!
#40000
0!
b100 l"
05
15!
1:!
1f!
1k!
#45000
1!
15
b0 ,"
b1 ,"
b10 ,"
b11 ,"
b100 ,"
b101 ,"
b110 ,"
b111 ,"
b1000 ,"
b1001 ,"
b1010 ,"
b1011 ,"
b1100 ,"
b1101 ,"
b1110 ,"
b1111 ,"
b10000 ,"
b10001 ,"
b10010 ,"
b10011 ,"
b10100 ,"
b10101 ,"
b10110 ,"
b10111 ,"
b11000 ,"
b11001 ,"
b11010 ,"
b11011 ,"
b11100 ,"
b11101 ,"
b11110 ,"
b11111 ,"
b100000 ,"
05!
0:!
0f!
0k!
#50000
0!
b101 l"
05
15!
1:!
1f!
1k!
#55000
1!
15
b0 ,"
b1 ,"
b10 ,"
b11 ,"
b100 ,"
b101 ,"
b110 ,"
b111 ,"
b1000 ,"
b1001 ,"
b1010 ,"
b1011 ,"
b1100 ,"
b1101 ,"
b1110 ,"
b1111 ,"
b10000 ,"
b10001 ,"
b10010 ,"
b10011 ,"
b10100 ,"
b10101 ,"
b10110 ,"
b10111 ,"
b11000 ,"
b11001 ,"
b11010 ,"
b11011 ,"
b11100 ,"
b11101 ,"
b11110 ,"
b11111 ,"
b100000 ,"
05!
0:!
0f!
0k!
#60000
0!
b110 l"
05
15!
1:!
1f!
1k!
#65000
1!
15
b0 ,"
b1 ,"
b10 ,"
b11 ,"
b100 ,"
b101 ,"
b110 ,"
b111 ,"
b1000 ,"
b1001 ,"
b1010 ,"
b1011 ,"
b1100 ,"
b1101 ,"
b1110 ,"
b1111 ,"
b10000 ,"
b10001 ,"
b10010 ,"
b10011 ,"
b10100 ,"
b10101 ,"
b10110 ,"
b10111 ,"
b11000 ,"
b11001 ,"
b11010 ,"
b11011 ,"
b11100 ,"
b11101 ,"
b11110 ,"
b11111 ,"
b100000 ,"
05!
0:!
0f!
0k!
#70000
0!
b111 l"
05
15!
1:!
1f!
1k!
#75000
1!
15
b0 ,"
b1 ,"
b10 ,"
b11 ,"
b100 ,"
b101 ,"
b110 ,"
b111 ,"
b1000 ,"
b1001 ,"
b1010 ,"
b1011 ,"
b1100 ,"
b1101 ,"
b1110 ,"
b1111 ,"
b10000 ,"
b10001 ,"
b10010 ,"
b10011 ,"
b10100 ,"
b10101 ,"
b10110 ,"
b10111 ,"
b11000 ,"
b11001 ,"
b11010 ,"
b11011 ,"
b11100 ,"
b11101 ,"
b11110 ,"
b11111 ,"
b100000 ,"
05!
0:!
0f!
0k!
#80000
0!
b1000 l"
05
15!
1:!
1f!
1k!
#85000
1!
15
b0 ,"
b1 ,"
b10 ,"
b11 ,"
b100 ,"
b101 ,"
b110 ,"
b111 ,"
b1000 ,"
b1001 ,"
b1010 ,"
b1011 ,"
b1100 ,"
b1101 ,"
b1110 ,"
b1111 ,"
b10000 ,"
b10001 ,"
b10010 ,"
b10011 ,"
b10100 ,"
b10101 ,"
b10110 ,"
b10111 ,"
b11000 ,"
b11001 ,"
b11010 ,"
b11011 ,"
b11100 ,"
b11101 ,"
b11110 ,"
b11111 ,"
b100000 ,"
05!
0:!
0f!
0k!
#90000
0!
b1001 l"
05
15!
1:!
1f!
1k!
#95000
1!
15
b0 ,"
b1 ,"
b10 ,"
b11 ,"
b100 ,"
b101 ,"
b110 ,"
b111 ,"
b1000 ,"
b1001 ,"
b1010 ,"
b1011 ,"
b1100 ,"
b1101 ,"
b1110 ,"
b1111 ,"
b10000 ,"
b10001 ,"
b10010 ,"
b10011 ,"
b10100 ,"
b10101 ,"
b10110 ,"
b10111 ,"
b11000 ,"
b11001 ,"
b11010 ,"
b11011 ,"
b11100 ,"
b11101 ,"
b11110 ,"
b11111 ,"
b100000 ,"
05!
0:!
0f!
0k!
#100000
0!
b1010 l"
1"
b0 0
b1 0
b10 0
b11 0
b100 0
b101 0
b110 0
b111 0
b1000 0
b1001 0
b1010 0
b1011 0
b1100 0
b1101 0
b1110 0
b1111 0
b10000 0
b10001 0
b10010 0
b10011 0
b10100 0
b10101 0
b10110 0
b10111 0
b11000 0
b11001 0
b11010 0
b11011 0
b11100 0
b11101 0
b11110 0
b11111 0
b100000 0
b100001 0
b100010 0
b100011 0
b100100 0
b100101 0
b100110 0
b100111 0
b101000 0
b101001 0
b101010 0
b101011 0
b101100 0
b101101 0
b101110 0
b101111 0
b110000 0
b110001 0
b110010 0
b110011 0
b110100 0
b110101 0
b110110 0
b110111 0
b111000 0
b111001 0
b111010 0
b111011 0
b111100 0
b111101 0
b111110 0
b111111 0
b1000000 0
b1000001 0
b1000010 0
b1000011 0
b1000100 0
b1000101 0
b1000110 0
b1000111 0
b1001000 0
b1001001 0
b1001010 0
b1001011 0
b1001100 0
b1001101 0
b1001110 0
b1001111 0
b1010000 0
b1010001 0
b1010010 0
b1010011 0
b1010100 0
b1010101 0
b1010110 0
b1010111 0
b1011000 0
b1011001 0
b1011010 0
b1011011 0
b1011100 0
b1011101 0
b1011110 0
b1011111 0
b1100000 0
b1100001 0
b1100010 0
b1100011 0
b1100100 0
b1100101 0
b1100110 0
b1100111 0
b1101000 0
b1101001 0
b1101010 0
b1101011 0
b1101100 0
b1101101 0
b1101110 0
b1101111 0
b1110000 0
b1110001 0
b1110010 0
b1110011 0
b1110100 0
b1110101 0
b1110110 0
b1110111 0
b1111000 0
b1111001 0
b1111010 0
b1111011 0
b1111100 0
b1111101 0
b1111110 0
b1111111 0
b10000000 0
b0 l"
16
05
15!
1:!
1f!
1k!
#105000
1!
15
b1 ,"
b10 ,"
b11 ,"
b100 ,"
b101 ,"
b110 ,"
b111 ,"
b1000 ,"
b1001 ,"
b1010 ,"
b1011 ,"
b1100 ,"
b1101 ,"
b1110 ,"
b1111 ,"
b10000 ,"
b10001 ,"
b10010 ,"
b10011 ,"
b10100 ,"
b10101 ,"
b10110 ,"
b10111 ,"
b11000 ,"
b11001 ,"
b11010 ,"
b11011 ,"
b11100 ,"
b11101 ,"
b11110 ,"
b11111 ,"
b100000 ,"
05!
0:!
0f!
0k!
#110000
0!
b1 l"
05
15!
1:!
1f!
1k!
#115000
1!
15
b1 ,"
b10 ,"
b11 ,"
b100 ,"
b101 ,"
b110 ,"
b111 ,"
b1000 ,"
b1001 ,"
b1010 ,"
b1011 ,"
b1100 ,"
b1101 ,"
b1110 ,"
b1111 ,"
b10000 ,"
b10001 ,"
b10010 ,"
b10011 ,"
b10100 ,"
b10101 ,"
b10110 ,"
b10111 ,"
b11000 ,"
b11001 ,"
b11010 ,"
b11011 ,"
b11100 ,"
b11101 ,"
b11110 ,"
b11111 ,"
b100000 ,"
05!
0:!
0f!
0k!
#120000
0!
b10 l"
05
15!
1:!
1f!
1k!
#125000
1!
15
b1 ,"
b10 ,"
b11 ,"
b100 ,"
b101 ,"
b110 ,"
b111 ,"
b1000 ,"
b1001 ,"
b1010 ,"
b1011 ,"
b1100 ,"
b1101 ,"
b1110 ,"
b1111 ,"
b10000 ,"
b10001 ,"
b10010 ,"
b10011 ,"
b10100 ,"
b10101 ,"
b10110 ,"
b10111 ,"
b11000 ,"
b11001 ,"
b11010 ,"
b11011 ,"
b11100 ,"
b11101 ,"
b11110 ,"
b11111 ,"
b100000 ,"
05!
0:!
0f!
0k!
#130000
0!
b11 l"
05
15!
1:!
1f!
1k!
#135000
1!
15
b1 ,"
b10 ,"
b11 ,"
b100 ,"
b101 ,"
b110 ,"
b111 ,"
b1000 ,"
b1001 ,"
b1010 ,"
b1011 ,"
b1100 ,"
b1101 ,"
b1110 ,"
b1111 ,"
b10000 ,"
b10001 ,"
b10010 ,"
b10011 ,"
b10100 ,"
b10101 ,"
b10110 ,"
b10111 ,"
b11000 ,"
b11001 ,"
b11010 ,"
b11011 ,"
b11100 ,"
b11101 ,"
b11110 ,"
b11111 ,"
b100000 ,"
05!
0:!
0f!
0k!
#140000
0!
b100 l"
05
15!
1:!
1f!
1k!
#145000
1!
15
b1 ,"
b10 ,"
b11 ,"
b100 ,"
b101 ,"
b110 ,"
b111 ,"
b1000 ,"
b1001 ,"
b1010 ,"
b1011 ,"
b1100 ,"
b1101 ,"
b1110 ,"
b1111 ,"
b10000 ,"
b10001 ,"
b10010 ,"
b10011 ,"
b10100 ,"
b10101 ,"
b10110 ,"
b10111 ,"
b11000 ,"
b11001 ,"
b11010 ,"
b11011 ,"
b11100 ,"
b11101 ,"
b11110 ,"
b11111 ,"
b100000 ,"
05!
0:!
0f!
0k!
#150000
0!
b101 l"
05
15!
1:!
1f!
1k!
